{
  "users": [
    {
      "email": "qwe@gamil.com",
      "password": "12345",
      "avatar": "https://resizing.flixster.com/EVAkglctn7E9B0hVKJrueplabuQ=/220x196/v1.cjs0NjYwNjtqOzE4NDk1OzEyMDA7MjIwOzE5Ng",
      "userId": "533b5230-1b8f-11e8-9629-c7eca82aa7bd",
      "createdAt": "2020-07-16T19:48:42.481Z"
    },
    {
      "email": "admin",
      "password": "admin",
      "avatar": "https://resizing.flixster.com/EVAkglctn7E9B0hVKJrueplabuQ=/220x196/v1.cjs0NjYwNjtqOzE4NDk1OzEyMDA7MjIwOzE5Ng",
      "userId": "9e243930-83c9-11e9-8e0c-8f1a686f4ce4",
      "createdAt": "2020-07-16T19:48:42.481Z"
    },
    {
      "email": "qwert@gamil.com",
      "password": "12345",
      "avatar": "https://resizing.flixster.com/EVAkglctn7E9B0hVKJrueplabuQ=/220x196/v1.cjs0NjYwNjtqOzE4NDk1OzEyMDA7MjIwOzE5Ng",
      "userId": "533b5230-1b8f-11e8-9629-c7eca82aa7bd",
      "createdAt": "2020-07-16T19:48:42.481Z"
    }
  ],
  "messages": [
    {
      "id": "80e00b40-1b8f-11e8-9629-c7eca82aa7bd",
      "text": "Tells exactly what happened.",
      "user": "Wendy",
      "avatar": "https://resizing.flixster.com/EVAkglctn7E9B0hVKJrueplabuQ=/220x196/v1.cjs0NjYwNjtqOzE4NDk1OzEyMDA7MjIwOzE5Ng",
      "userId": "533b5230-1b8f-11e8-9629-c7eca82aa7bd",
      "editedAt": "2020-07-16T19:48:47.481Z",
      "createdAt": "2020-07-16T19:48:42.481Z"
    },
    {
      "id": "80e03259-1b8f-11e8-9629-c7eca82aa7bd",
      "text": "You were doing your daily bank transfers and…",
      "user": "Wendy",
      "avatar": "https://resizing.flixster.com/EVAkglctn7E9B0hVKJrueplabuQ=/220x196/v1.cjs0NjYwNjtqOzE4NDk1OzEyMDA7MjIwOzE5Ng",
      "userId": "533b5230-1b8f-11e8-9629-c7eca82aa7bd",
      "editedAt": "",
      "createdAt": "2020-07-16T19:48:56.273Z"
    },
    {
      "id": "80e03256-1b8f-11e8-9629-c7eca82aa7bd",
      "text": "Why this account?",
      "user": "Helen",
      "avatar": "https://resizing.flixster.com/PCEX63VBu7wVvdt9Eq-FrTI6d_4=/300x300/v1.cjs0MzYxNjtqOzE4NDk1OzEyMDA7MzQ5OzMxMQ",
      "userId": "4b003c20-1b8f-11e8-9629-c7eca82aa7bd",
      "editedAt": "",
      "createdAt": "2020-07-16T19:49:33.195Z"
    },
    {
      "id": "80e03254-1b8f-11e8-9629-c7eca82aa7bd",
      "text": "What the ** is a red flag anyway?",
      "user": "Ben",
      "avatar": "https://www.aceshowbiz.com/images/photo/tom_pelphrey.jpg",
      "userId": "5328dba1-1b8f-11e8-9629-c7eca82aa7bd",
      "editedAt": "",
      "createdAt": "2020-07-16T19:50:07.708Z"
    },
    {
      "id": "80e03253-1b8f-11e8-9629-c7eca82aa7bd",
      "text": "You sa id you could handle things",
      "user": "Helen",
      "avatar": "https://resizing.flixster.com/PCEX63VBu7wVvdt9Eq-FrTI6d_4=/300x300/v1.cjs0MzYxNjtqOzE4NDk1OzEyMDA7MzQ5OzMxMQ",
      "userId": "4b003c20-1b8f-11e8-9629-c7eca82aa7bd",
      "editedAt": "",
      "createdAt": "2020-07-16T19:53:02.483Z"
    },
    {
      "id": "80e03250-1b8f-11e8-9629-c7eca82aa7bd",
      "text": "Can you fix this? Can you fix it?",
      "user": "Wendy",
      "avatar": "https://resizing.flixster.com/EVAkglctn7E9B0hVKJrueplabuQ=/220x196/v1.cjs0NjYwNjtqOzE4NDk1OzEyMDA7MjIwOzE5Ng",
      "userId": "533b5230-1b8f-11e8-9629-c7eca82aa7bd",
      "editedAt": "",
      "createdAt": "2020-07-16T19:56:51.491Z"
    },
    {
      "id": "80e03249-1b8f-11e8-9629-c7eca82aa7bd",
      "text": "Her best is gonna get us all killed.",
      "user": "Helen",
      "avatar": "https://resizing.flixster.com/PCEX63VBu7wVvdt9Eq-FrTI6d_4=/300x300/v1.cjs0MzYxNjtqOzE4NDk1OzEyMDA7MzQ5OzMxMQ",
      "userId": "4b003c20-1b8f-11e8-9629-c7eca82aa7bd",
      "editedAt": "2020-07-16T19:57:15.965Z",
      "createdAt": "2020-07-16T19:57:07.965Z"
    },
    {
      "id": "80e03245-1b8f-11e8-9629-c7eca82aa7bd",
      "text": "aaaha!",
      "user": "Ben",
      "avatar": "https://www.aceshowbiz.com/images/photo/tom_pelphrey.jpg",
      "userId": "5328dba1-1b8f-11e8-9629-c7eca82aa7bd",
      "editedAt": "",
      "createdAt": "2020-07-16T19:58:17.878Z"
    },
    {
      "id": "7a80c911-b6a1-4984-8a9d-bfac7cb0630e",
      "createdAt": "2020-07-23T17:20:26.105Z"
    },
    {
      "id": "5e239982-3dea-45af-980d-cb87b352cb99",
      "createdAt": "2020-07-23T17:20:37.427Z"
    },
    {
      "id": "f36f60b6-13c0-4119-8f95-50c82175f91a",
      "createdAt": "2020-07-23T17:21:22.810Z"
    },
    {
      "id": "d9b951ac-d0e9-4cc5-bb50-86f30a33fa62",
      "createdAt": "2020-07-23T17:21:52.918Z"
    },
    {
      "id": "44ddd84d-8e59-4052-898a-c2797102065a",
      "createdAt": "2020-07-23T17:22:35.485Z"
    },
    {
      "id": "62985853-b5e1-4c73-a02e-3c5c31947f4f",
      "createdAt": "2020-07-23T17:26:48.653Z"
    },
    {
      "id": "da8ce08d-8b50-4099-a0c0-a7b09af757e6",
      "createdAt": "2020-07-23T17:26:56.740Z"
    },
    {
      "id": "562a813c-7a76-4b58-9ab2-f65ba457c1ef",
      "createdAt": "2020-07-23T17:27:02.017Z"
    },
    {
      "id": "ba7c86a2-f5f5-40b1-a6be-3054f0f45ea8",
      "createdAt": "2020-07-23T17:27:33.089Z"
    },
    {
      "userId": "9e243930-83c9-11e9-8e0c-8f1a686f4ce4",
      "text": "vbg",
      "id": "5b8031b2-af0d-42a4-b5f6-a4fd0a26e6de",
      "createdAt": "2020-07-23T17:39:06.136Z"
    }
  ]
}